trace.vcd
$timescale 1ns $end
$scope module logic $end
$var wire 1 assertion0 assertion0 $end
$var wire 1 assertion1 assertion1 $end
$var wire 1 hostmem_re hostmem_re $end
$var wire 64 raddr raddr $end
$var wire 3 weights_count weights_count $end
$var wire 512 weights_dram_in weights_dram_in $end
$var wire 1 weights_dram_valid weights_dram_valid $end
$var wire 4 weights_wait weights_wait $end
$upscope $end
$enddefinitions $end
$dumpvars
b1 assertion0
b1 assertion1
b1 hostmem_re
b0 raddr
b0 weights_count
b0 weights_dram_in
b0 weights_dram_valid
b0 weights_wait
$end
#0
b1 assertion0
b1 assertion1
b1 hostmem_re
b0 raddr
b0 weights_count
b0 weights_dram_in
b0 weights_dram_valid
b0 weights_wait
#1
b1 assertion0
b1 assertion1
b1 hostmem_re
b1 raddr
b0 weights_count
b0 weights_dram_in
b0 weights_dram_valid
b1001 weights_wait
#2
b1 assertion0
b1 assertion1
b1 hostmem_re
b10 raddr
b0 weights_count
b0 weights_dram_in
b0 weights_dram_valid
b1001 weights_wait
#3
b1 assertion0
b1 assertion1
b1 hostmem_re
b11 raddr
b0 weights_count
b1111110100001111000011110000111100001111000011110000111100001111000011101111110100001111000011110000111100001111000011110000111100001111000011101111110100001111000011110000111100001111000011110000111100001111000011101111110100001111000011110000111100001111000011110000111100001111000011101111110100001111000011110000111100001111000011110000111100001111000011101111110100001111000011110000111100001111000011110000111100001111000011101111110100001111000011110000111100001111000011110000111100001111000011101111110 weights_dram_in
b1 weights_dram_valid
b1001 weights_wait
#4
b1 assertion0
b1 assertion1
b1 hostmem_re
b100 raddr
b0 weights_count
b0 weights_dram_in
b0 weights_dram_valid
b1001 weights_wait
#5
b1 assertion0
b1 assertion1
b1 hostmem_re
b101 raddr
b0 weights_count
b0 weights_dram_in
b0 weights_dram_valid
b1001 weights_wait
#6
b1 assertion0
b1 assertion1
b1 hostmem_re
b110 raddr
b0 weights_count
b0 weights_dram_in
b0 weights_dram_valid
b1001 weights_wait
#7
b1 assertion0
b1 assertion1
b1 hostmem_re
b111 raddr
b0 weights_count
b0 weights_dram_in
b0 weights_dram_valid
b1001 weights_wait
#8
b1 assertion0
b1 assertion1
b1 hostmem_re
b1000 raddr
b0 weights_count
b0 weights_dram_in
b0 weights_dram_valid
b1001 weights_wait
#9
b1 assertion0
b1 assertion1
b0 hostmem_re
b0 raddr
b1 weights_count
b0 weights_dram_in
b0 weights_dram_valid
b1001 weights_wait
#10
b1 assertion0
b1 assertion1
b0 hostmem_re
b0 raddr
b10 weights_count
b0 weights_dram_in
b0 weights_dram_valid
b1001 weights_wait
#11
b1 assertion0
b1 assertion1
b0 hostmem_re
b0 raddr
b11 weights_count
b0 weights_dram_in
b0 weights_dram_valid
b1001 weights_wait
#12
b1 assertion0
b1 assertion1
b0 hostmem_re
b0 raddr
b100 weights_count
b0 weights_dram_in
b0 weights_dram_valid
b1001 weights_wait
#13
b1 assertion0
b1 assertion1
b0 hostmem_re
b0 raddr
b101 weights_count
b0 weights_dram_in
b0 weights_dram_valid
b1001 weights_wait
#14
b1 assertion0
b1 assertion1
b0 hostmem_re
b0 raddr
b110 weights_count
b0 weights_dram_in
b0 weights_dram_valid
b1001 weights_wait
#15
b1 assertion0
b1 assertion1
b0 hostmem_re
b0 raddr
b111 weights_count
b0 weights_dram_in
b0 weights_dram_valid
b1001 weights_wait
#16
b1 assertion0
b1 assertion1
b0 hostmem_re
b0 raddr
b111 weights_count
b0 weights_dram_in
b0 weights_dram_valid
b1001 weights_wait
#17
b1 assertion0
b1 assertion1
b0 hostmem_re
b0 raddr
b111 weights_count
b0 weights_dram_in
b0 weights_dram_valid
b1001 weights_wait
#18
b1 assertion0
b1 assertion1
b0 hostmem_re
b0 raddr
b111 weights_count
b0 weights_dram_in
b0 weights_dram_valid
b1001 weights_wait
#19
b1 assertion0
b1 assertion1
b0 hostmem_re
b0 raddr
b111 weights_count
b0 weights_dram_in
b0 weights_dram_valid
b1001 weights_wait
#20
b1 assertion0
b1 assertion1
b0 hostmem_re
b0 raddr
b111 weights_count
b0 weights_dram_in
b0 weights_dram_valid
b1001 weights_wait
#21
b1 assertion0
b1 assertion1
b0 hostmem_re
b0 raddr
b111 weights_count
b0 weights_dram_in
b0 weights_dram_valid
b1001 weights_wait
#22
b1 assertion0
b1 assertion1
b0 hostmem_re
b0 raddr
b111 weights_count
b0 weights_dram_in
b0 weights_dram_valid
b1001 weights_wait
#23
b1 assertion0
b1 assertion1
b0 hostmem_re
b0 raddr
b111 weights_count
b0 weights_dram_in
b0 weights_dram_valid
b1001 weights_wait
#24
b1 assertion0
b1 assertion1
b0 hostmem_re
b0 raddr
b111 weights_count
b0 weights_dram_in
b0 weights_dram_valid
b1001 weights_wait
#25
b1 assertion0
b1 assertion1
b0 hostmem_re
b0 raddr
b111 weights_count
b0 weights_dram_in
b0 weights_dram_valid
b1001 weights_wait
#26
b1 assertion0
b1 assertion1
b0 hostmem_re
b0 raddr
b111 weights_count
b0 weights_dram_in
b0 weights_dram_valid
b1001 weights_wait
#27
b1 assertion0
b1 assertion1
b0 hostmem_re
b0 raddr
b111 weights_count
b0 weights_dram_in
b0 weights_dram_valid
b1001 weights_wait
#28
b1 assertion0
b1 assertion1
b0 hostmem_re
b0 raddr
b111 weights_count
b0 weights_dram_in
b0 weights_dram_valid
b1001 weights_wait
#29
b1 assertion0
b1 assertion1
b0 hostmem_re
b0 raddr
b111 weights_count
b0 weights_dram_in
b0 weights_dram_valid
b1001 weights_wait
#30
b1 assertion0
b1 assertion1
b0 hostmem_re
b0 raddr
b111 weights_count
b0 weights_dram_in
b0 weights_dram_valid
b1001 weights_wait
#31
b1 assertion0
b1 assertion1
b0 hostmem_re
b0 raddr
b111 weights_count
b0 weights_dram_in
b0 weights_dram_valid
b1001 weights_wait
#32
b1 assertion0
b1 assertion1
b0 hostmem_re
b0 raddr
b111 weights_count
b0 weights_dram_in
b0 weights_dram_valid
b1001 weights_wait
#33
b1 assertion0
b1 assertion1
b0 hostmem_re
b0 raddr
b111 weights_count
b0 weights_dram_in
b0 weights_dram_valid
b1001 weights_wait
#34
b1 assertion0
b1 assertion1
b0 hostmem_re
b0 raddr
b111 weights_count
b0 weights_dram_in
b0 weights_dram_valid
b1001 weights_wait
#35
b1 assertion0
b1 assertion1
b0 hostmem_re
b0 raddr
b111 weights_count
b0 weights_dram_in
b0 weights_dram_valid
b1001 weights_wait
#36
b1 assertion0
b1 assertion1
b0 hostmem_re
b0 raddr
b111 weights_count
b0 weights_dram_in
b0 weights_dram_valid
b1001 weights_wait
#37
b1 assertion0
b1 assertion1
b0 hostmem_re
b0 raddr
b111 weights_count
b0 weights_dram_in
b0 weights_dram_valid
b1001 weights_wait
#38
b1 assertion0
b1 assertion1
b0 hostmem_re
b0 raddr
b111 weights_count
b0 weights_dram_in
b0 weights_dram_valid
b1001 weights_wait
#39
b1 assertion0
b1 assertion1
b0 hostmem_re
b0 raddr
b111 weights_count
b0 weights_dram_in
b0 weights_dram_valid
b1001 weights_wait
#40
b1 assertion0
b1 assertion1
b0 hostmem_re
b0 raddr
b111 weights_count
b0 weights_dram_in
b0 weights_dram_valid
b1001 weights_wait
#41
b1 assertion0
b1 assertion1
b0 hostmem_re
b0 raddr
b111 weights_count
b0 weights_dram_in
b0 weights_dram_valid
b1001 weights_wait
#42
b1 assertion0
b1 assertion1
b0 hostmem_re
b0 raddr
b111 weights_count
b0 weights_dram_in
b0 weights_dram_valid
b1001 weights_wait
#43
b1 assertion0
b1 assertion1
b0 hostmem_re
b0 raddr
b111 weights_count
b0 weights_dram_in
b0 weights_dram_valid
b1001 weights_wait
#44
b1 assertion0
b1 assertion1
b0 hostmem_re
b0 raddr
b111 weights_count
b0 weights_dram_in
b0 weights_dram_valid
b1001 weights_wait
#45
b1 assertion0
b1 assertion1
b0 hostmem_re
b0 raddr
b111 weights_count
b0 weights_dram_in
b0 weights_dram_valid
b1001 weights_wait
#46
b1 assertion0
b1 assertion1
b0 hostmem_re
b0 raddr
b111 weights_count
b0 weights_dram_in
b0 weights_dram_valid
b1001 weights_wait
#47
b1 assertion0
b1 assertion1
b0 hostmem_re
b0 raddr
b111 weights_count
b0 weights_dram_in
b0 weights_dram_valid
b1001 weights_wait
#48
b1 assertion0
b1 assertion1
b0 hostmem_re
b0 raddr
b111 weights_count
b0 weights_dram_in
b0 weights_dram_valid
b1001 weights_wait
#49
b1 assertion0
b1 assertion1
b0 hostmem_re
b0 raddr
b111 weights_count
b0 weights_dram_in
b0 weights_dram_valid
b1001 weights_wait
#50
b1 assertion0
b1 assertion1
b0 hostmem_re
b0 raddr
b111 weights_count
b0 weights_dram_in
b0 weights_dram_valid
b1001 weights_wait
#51
b1 assertion0
b1 assertion1
b0 hostmem_re
b0 raddr
b111 weights_count
b0 weights_dram_in
b0 weights_dram_valid
b1001 weights_wait
#52
b1 assertion0
b1 assertion1
b0 hostmem_re
b0 raddr
b111 weights_count
b0 weights_dram_in
b0 weights_dram_valid
b1001 weights_wait
#53
b1 assertion0
b1 assertion1
b0 hostmem_re
b0 raddr
b111 weights_count
b0 weights_dram_in
b0 weights_dram_valid
b1001 weights_wait
#54
b1 assertion0
b1 assertion1
b0 hostmem_re
b0 raddr
b111 weights_count
b0 weights_dram_in
b0 weights_dram_valid
b1001 weights_wait
#55
b1 assertion0
b1 assertion1
b0 hostmem_re
b0 raddr
b111 weights_count
b0 weights_dram_in
b0 weights_dram_valid
b1001 weights_wait
#56
b1 assertion0
b1 assertion1
b0 hostmem_re
b0 raddr
b111 weights_count
b0 weights_dram_in
b0 weights_dram_valid
b1001 weights_wait
#57
b1 assertion0
b1 assertion1
b0 hostmem_re
b0 raddr
b111 weights_count
b0 weights_dram_in
b0 weights_dram_valid
b1001 weights_wait
#58
b1 assertion0
b1 assertion1
b0 hostmem_re
b0 raddr
b111 weights_count
b0 weights_dram_in
b0 weights_dram_valid
b1001 weights_wait
#59
b1 assertion0
b1 assertion1
b0 hostmem_re
b0 raddr
b111 weights_count
b0 weights_dram_in
b0 weights_dram_valid
b1001 weights_wait
#60
b1 assertion0
b1 assertion1
b0 hostmem_re
b0 raddr
b111 weights_count
b0 weights_dram_in
b0 weights_dram_valid
b1001 weights_wait
#61
b1 assertion0
b1 assertion1
b0 hostmem_re
b0 raddr
b111 weights_count
b0 weights_dram_in
b0 weights_dram_valid
b1001 weights_wait
#62
b1 assertion0
b1 assertion1
b0 hostmem_re
b0 raddr
b111 weights_count
b0 weights_dram_in
b0 weights_dram_valid
b1001 weights_wait
#63
b1 assertion0
b1 assertion1
b0 hostmem_re
b0 raddr
b111 weights_count
b0 weights_dram_in
b0 weights_dram_valid
b1001 weights_wait
#64
b1 assertion0
b1 assertion1
b0 hostmem_re
b0 raddr
b111 weights_count
b0 weights_dram_in
b0 weights_dram_valid
b1001 weights_wait
#65
b1 assertion0
b1 assertion1
b0 hostmem_re
b0 raddr
b111 weights_count
b0 weights_dram_in
b0 weights_dram_valid
b1001 weights_wait
#66
b1 assertion0
b1 assertion1
b0 hostmem_re
b0 raddr
b111 weights_count
b0 weights_dram_in
b0 weights_dram_valid
b1001 weights_wait
#67
b1 assertion0
b1 assertion1
b0 hostmem_re
b0 raddr
b111 weights_count
b0 weights_dram_in
b0 weights_dram_valid
b1001 weights_wait
#68
b1 assertion0
b1 assertion1
b0 hostmem_re
b0 raddr
b111 weights_count
b0 weights_dram_in
b0 weights_dram_valid
b1001 weights_wait
#69
b1 assertion0
b1 assertion1
b0 hostmem_re
b0 raddr
b111 weights_count
b0 weights_dram_in
b0 weights_dram_valid
b1001 weights_wait
#70
b1 assertion0
b1 assertion1
b0 hostmem_re
b0 raddr
b111 weights_count
b0 weights_dram_in
b0 weights_dram_valid
b1001 weights_wait
#71
b1 assertion0
b1 assertion1
b0 hostmem_re
b0 raddr
b111 weights_count
b0 weights_dram_in
b0 weights_dram_valid
b1001 weights_wait
#72
b1 assertion0
b1 assertion1
b0 hostmem_re
b0 raddr
b111 weights_count
b0 weights_dram_in
b0 weights_dram_valid
b1001 weights_wait
#73
b1 assertion0
b1 assertion1
b0 hostmem_re
b0 raddr
b111 weights_count
b0 weights_dram_in
b0 weights_dram_valid
b1001 weights_wait
#74
b1 assertion0
b1 assertion1
b0 hostmem_re
b0 raddr
b111 weights_count
b0 weights_dram_in
b0 weights_dram_valid
b1001 weights_wait
#75
b1 assertion0
b1 assertion1
b0 hostmem_re
b0 raddr
b111 weights_count
b0 weights_dram_in
b0 weights_dram_valid
b1001 weights_wait
#76
b1 assertion0
b1 assertion1
b0 hostmem_re
b0 raddr
b111 weights_count
b0 weights_dram_in
b0 weights_dram_valid
b1001 weights_wait
#77
b1 assertion0
b1 assertion1
b0 hostmem_re
b0 raddr
b111 weights_count
b0 weights_dram_in
b0 weights_dram_valid
b1001 weights_wait
#78
b1 assertion0
b1 assertion1
b0 hostmem_re
b0 raddr
b111 weights_count
b0 weights_dram_in
b0 weights_dram_valid
b1001 weights_wait
#79
b1 assertion0
b1 assertion1
b0 hostmem_re
b0 raddr
b111 weights_count
b0 weights_dram_in
b0 weights_dram_valid
b1001 weights_wait
#80
b1 assertion0
b1 assertion1
b0 hostmem_re
b0 raddr
b111 weights_count
b0 weights_dram_in
b0 weights_dram_valid
b1001 weights_wait
#81
b1 assertion0
b1 assertion1
b0 hostmem_re
b0 raddr
b111 weights_count
b0 weights_dram_in
b0 weights_dram_valid
b1001 weights_wait
#82
b1 assertion0
b1 assertion1
b0 hostmem_re
b0 raddr
b111 weights_count
b0 weights_dram_in
b0 weights_dram_valid
b1001 weights_wait
#83
b1 assertion0
b1 assertion1
b0 hostmem_re
b0 raddr
b111 weights_count
b0 weights_dram_in
b0 weights_dram_valid
b1001 weights_wait
#84
b1 assertion0
b1 assertion1
b0 hostmem_re
b0 raddr
b111 weights_count
b0 weights_dram_in
b0 weights_dram_valid
b1001 weights_wait
#85
b1 assertion0
b1 assertion1
b0 hostmem_re
b0 raddr
b111 weights_count
b0 weights_dram_in
b0 weights_dram_valid
b1001 weights_wait
#86
b1 assertion0
b1 assertion1
b0 hostmem_re
b0 raddr
b111 weights_count
b0 weights_dram_in
b0 weights_dram_valid
b1001 weights_wait
#87
b1 assertion0
b1 assertion1
b0 hostmem_re
b0 raddr
b111 weights_count
b0 weights_dram_in
b0 weights_dram_valid
b1001 weights_wait
#88
b1 assertion0
b1 assertion1
b0 hostmem_re
b0 raddr
b111 weights_count
b0 weights_dram_in
b0 weights_dram_valid
b1001 weights_wait
#89
b1 assertion0
b1 assertion1
b0 hostmem_re
b0 raddr
b111 weights_count
b0 weights_dram_in
b0 weights_dram_valid
b1001 weights_wait
#90
b1 assertion0
b1 assertion1
b0 hostmem_re
b0 raddr
b111 weights_count
b0 weights_dram_in
b0 weights_dram_valid
b1001 weights_wait
#91
b1 assertion0
b1 assertion1
b0 hostmem_re
b0 raddr
b111 weights_count
b0 weights_dram_in
b0 weights_dram_valid
b1001 weights_wait
#92
b1 assertion0
b1 assertion1
b0 hostmem_re
b0 raddr
b111 weights_count
b0 weights_dram_in
b0 weights_dram_valid
b1001 weights_wait
#93
b1 assertion0
b1 assertion1
b0 hostmem_re
b0 raddr
b111 weights_count
b0 weights_dram_in
b0 weights_dram_valid
b1001 weights_wait
#94
b1 assertion0
b1 assertion1
b0 hostmem_re
b0 raddr
b111 weights_count
b0 weights_dram_in
b0 weights_dram_valid
b1001 weights_wait
#95
b1 assertion0
b1 assertion1
b0 hostmem_re
b0 raddr
b111 weights_count
b0 weights_dram_in
b0 weights_dram_valid
b1001 weights_wait
#96
b1 assertion0
b1 assertion1
b0 hostmem_re
b0 raddr
b111 weights_count
b0 weights_dram_in
b0 weights_dram_valid
b1001 weights_wait
#97
b1 assertion0
b1 assertion1
b0 hostmem_re
b0 raddr
b111 weights_count
b0 weights_dram_in
b0 weights_dram_valid
b1001 weights_wait
#98
b1 assertion0
b1 assertion1
b0 hostmem_re
b0 raddr
b111 weights_count
b0 weights_dram_in
b0 weights_dram_valid
b1001 weights_wait
#99
b1 assertion0
b1 assertion1
b0 hostmem_re
b0 raddr
b111 weights_count
b0 weights_dram_in
b0 weights_dram_valid
b1001 weights_wait
#100
b1 assertion0
b1 assertion1
b0 hostmem_re
b0 raddr
b111 weights_count
b0 weights_dram_in
b0 weights_dram_valid
b1001 weights_wait
#101
b1 assertion0
b1 assertion1
b0 hostmem_re
b0 raddr
b111 weights_count
b0 weights_dram_in
b0 weights_dram_valid
b1001 weights_wait
#102
b1 assertion0
b1 assertion1
b0 hostmem_re
b0 raddr
b111 weights_count
b0 weights_dram_in
b0 weights_dram_valid
b1001 weights_wait
#103
b1 assertion0
b1 assertion1
b0 hostmem_re
b0 raddr
b111 weights_count
b0 weights_dram_in
b0 weights_dram_valid
b1001 weights_wait
#104
b1 assertion0
b1 assertion1
b0 hostmem_re
b0 raddr
b111 weights_count
b0 weights_dram_in
b0 weights_dram_valid
b1001 weights_wait
#105
b1 assertion0
b1 assertion1
b0 hostmem_re
b0 raddr
b0 weights_count
b0 weights_dram_in
b0 weights_dram_valid
b0 weights_wait
#106
b1 assertion0
b1 assertion1
b0 hostmem_re
b0 raddr
b0 weights_count
b0 weights_dram_in
b0 weights_dram_valid
b1 weights_wait
#107
b1 assertion0
b1 assertion1
b0 hostmem_re
b0 raddr
b0 weights_count
b0 weights_dram_in
b0 weights_dram_valid
b10 weights_wait
#108
b1 assertion0
b1 assertion1
b0 hostmem_re
b0 raddr
b0 weights_count
b0 weights_dram_in
b0 weights_dram_valid
b11 weights_wait
#109
b1 assertion0
b1 assertion1
b0 hostmem_re
b0 raddr
b0 weights_count
b0 weights_dram_in
b0 weights_dram_valid
b100 weights_wait
#110
b1 assertion0
b1 assertion1
b0 hostmem_re
b0 raddr
b0 weights_count
b0 weights_dram_in
b0 weights_dram_valid
b101 weights_wait
#111
b1 assertion0
b1 assertion1
b0 hostmem_re
b0 raddr
b0 weights_count
b0 weights_dram_in
b0 weights_dram_valid
b110 weights_wait
#112
b1 assertion0
b1 assertion1
b0 hostmem_re
b0 raddr
b0 weights_count
b0 weights_dram_in
b0 weights_dram_valid
b111 weights_wait
#113
b1 assertion0
b1 assertion1
b0 hostmem_re
b0 raddr
b0 weights_count
b0 weights_dram_in
b0 weights_dram_valid
b1000 weights_wait
#114
b1 assertion0
b1 assertion1
b0 hostmem_re
b0 raddr
b0 weights_count
b0 weights_dram_in
b0 weights_dram_valid
b1001 weights_wait
#115
b1 assertion0
b1 assertion1
b0 hostmem_re
b0 raddr
b1 weights_count
b0 weights_dram_in
b0 weights_dram_valid
b1001 weights_wait
#116
b1 assertion0
b1 assertion1
b0 hostmem_re
b0 raddr
b10 weights_count
b0 weights_dram_in
b0 weights_dram_valid
b1001 weights_wait
#117
b1 assertion0
b1 assertion1
b0 hostmem_re
b0 raddr
b11 weights_count
b0 weights_dram_in
b0 weights_dram_valid
b1001 weights_wait
#118
b1 assertion0
b1 assertion1
b0 hostmem_re
b0 raddr
b100 weights_count
b0 weights_dram_in
b0 weights_dram_valid
b1001 weights_wait
#119
b1 assertion0
b1 assertion1
b0 hostmem_re
b0 raddr
b101 weights_count
b0 weights_dram_in
b0 weights_dram_valid
b1001 weights_wait
#120
b1 assertion0
b1 assertion1
b0 hostmem_re
b0 raddr
b110 weights_count
b0 weights_dram_in
b0 weights_dram_valid
b1001 weights_wait
#121
b1 assertion0
b1 assertion1
b0 hostmem_re
b0 raddr
b111 weights_count
b0 weights_dram_in
b0 weights_dram_valid
b1001 weights_wait
#122
b1 assertion0
b1 assertion1
b0 hostmem_re
b0 raddr
b111 weights_count
b0 weights_dram_in
b0 weights_dram_valid
b1001 weights_wait
#123
b1 assertion0
b1 assertion1
b0 hostmem_re
b0 raddr
b111 weights_count
b0 weights_dram_in
b0 weights_dram_valid
b1001 weights_wait
#124
b1 assertion0
b1 assertion1
b0 hostmem_re
b0 raddr
b111 weights_count
b0 weights_dram_in
b0 weights_dram_valid
b1001 weights_wait
#125
b1 assertion0
b1 assertion1
b0 hostmem_re
b0 raddr
b111 weights_count
b0 weights_dram_in
b0 weights_dram_valid
b1001 weights_wait
#126
b1 assertion0
b1 assertion1
b0 hostmem_re
b0 raddr
b111 weights_count
b0 weights_dram_in
b0 weights_dram_valid
b1001 weights_wait
#127
b1 assertion0
b1 assertion1
b0 hostmem_re
b0 raddr
b111 weights_count
b0 weights_dram_in
b0 weights_dram_valid
b1001 weights_wait
#128
b1 assertion0
b1 assertion1
b0 hostmem_re
b0 raddr
b111 weights_count
b0 weights_dram_in
b0 weights_dram_valid
b1001 weights_wait
#129
b1 assertion0
b1 assertion1
b0 hostmem_re
b0 raddr
b111 weights_count
b0 weights_dram_in
b0 weights_dram_valid
b1001 weights_wait
#130
b1 assertion0
b1 assertion1
b0 hostmem_re
b0 raddr
b111 weights_count
b0 weights_dram_in
b0 weights_dram_valid
b1001 weights_wait
#131
b1 assertion0
b1 assertion1
b0 hostmem_re
b0 raddr
b111 weights_count
b0 weights_dram_in
b0 weights_dram_valid
b1001 weights_wait
#132
b1 assertion0
b1 assertion1
b0 hostmem_re
b0 raddr
b111 weights_count
b0 weights_dram_in
b0 weights_dram_valid
b1001 weights_wait
#133
b1 assertion0
b1 assertion1
b0 hostmem_re
b0 raddr
b111 weights_count
b0 weights_dram_in
b0 weights_dram_valid
b1001 weights_wait
#134
b1 assertion0
b1 assertion1
b0 hostmem_re
b0 raddr
b111 weights_count
b0 weights_dram_in
b0 weights_dram_valid
b1001 weights_wait
#135
b1 assertion0
b1 assertion1
b0 hostmem_re
b0 raddr
b111 weights_count
b0 weights_dram_in
b0 weights_dram_valid
b1001 weights_wait
#136
b1 assertion0
b1 assertion1
b0 hostmem_re
b0 raddr
b111 weights_count
b0 weights_dram_in
b0 weights_dram_valid
b1001 weights_wait
#137
b1 assertion0
b1 assertion1
b0 hostmem_re
b0 raddr
b111 weights_count
b0 weights_dram_in
b0 weights_dram_valid
b1001 weights_wait
#138
b1 assertion0
b1 assertion1
b0 hostmem_re
b0 raddr
b111 weights_count
b0 weights_dram_in
b0 weights_dram_valid
b1001 weights_wait
#139
b1 assertion0
b1 assertion1
b0 hostmem_re
b0 raddr
b111 weights_count
b0 weights_dram_in
b0 weights_dram_valid
b1001 weights_wait
#140
b1 assertion0
b1 assertion1
b0 hostmem_re
b0 raddr
b111 weights_count
b0 weights_dram_in
b0 weights_dram_valid
b1001 weights_wait
#141
b1 assertion0
b1 assertion1
b0 hostmem_re
b0 raddr
b111 weights_count
b0 weights_dram_in
b0 weights_dram_valid
b1001 weights_wait
#142
b1 assertion0
b1 assertion1
b0 hostmem_re
b0 raddr
b111 weights_count
b0 weights_dram_in
b0 weights_dram_valid
b1001 weights_wait
#143
b1 assertion0
b1 assertion1
b0 hostmem_re
b0 raddr
b111 weights_count
b0 weights_dram_in
b0 weights_dram_valid
b1001 weights_wait
#144
b1 assertion0
b1 assertion1
b0 hostmem_re
b0 raddr
b111 weights_count
b0 weights_dram_in
b0 weights_dram_valid
b1001 weights_wait
#145
b1 assertion0
b1 assertion1
b0 hostmem_re
b0 raddr
b111 weights_count
b0 weights_dram_in
b0 weights_dram_valid
b1001 weights_wait
#146
b1 assertion0
b1 assertion1
b0 hostmem_re
b0 raddr
b111 weights_count
b0 weights_dram_in
b0 weights_dram_valid
b1001 weights_wait
#147
b1 assertion0
b1 assertion1
b0 hostmem_re
b0 raddr
b111 weights_count
b0 weights_dram_in
b0 weights_dram_valid
b1001 weights_wait
#148
b1 assertion0
b1 assertion1
b0 hostmem_re
b0 raddr
b111 weights_count
b0 weights_dram_in
b0 weights_dram_valid
b1001 weights_wait
#149
b1 assertion0
b1 assertion1
b0 hostmem_re
b0 raddr
b111 weights_count
b0 weights_dram_in
b0 weights_dram_valid
b1001 weights_wait
#150
b1 assertion0
b1 assertion1
b0 hostmem_re
b0 raddr
b111 weights_count
b0 weights_dram_in
b0 weights_dram_valid
b1001 weights_wait
#151
b1 assertion0
b1 assertion1
b0 hostmem_re
b0 raddr
b111 weights_count
b0 weights_dram_in
b0 weights_dram_valid
b1001 weights_wait
#152
b1 assertion0
b1 assertion1
b0 hostmem_re
b0 raddr
b111 weights_count
b0 weights_dram_in
b0 weights_dram_valid
b1001 weights_wait
#153
b1 assertion0
b1 assertion1
b0 hostmem_re
b0 raddr
b111 weights_count
b0 weights_dram_in
b0 weights_dram_valid
b1001 weights_wait
#154
b1 assertion0
b1 assertion1
b0 hostmem_re
b0 raddr
b111 weights_count
b0 weights_dram_in
b0 weights_dram_valid
b1001 weights_wait
#155
b1 assertion0
b1 assertion1
b0 hostmem_re
b0 raddr
b111 weights_count
b0 weights_dram_in
b0 weights_dram_valid
b1001 weights_wait
#156
b1 assertion0
b1 assertion1
b0 hostmem_re
b0 raddr
b111 weights_count
b0 weights_dram_in
b0 weights_dram_valid
b1001 weights_wait
#157
b1 assertion0
b1 assertion1
b0 hostmem_re
b0 raddr
b111 weights_count
b0 weights_dram_in
b0 weights_dram_valid
b1001 weights_wait
#158
b1 assertion0
b1 assertion1
b0 hostmem_re
b0 raddr
b111 weights_count
b0 weights_dram_in
b0 weights_dram_valid
b1001 weights_wait
#159
b1 assertion0
b1 assertion1
b0 hostmem_re
b0 raddr
b111 weights_count
b0 weights_dram_in
b0 weights_dram_valid
b1001 weights_wait
#160
b1 assertion0
b1 assertion1
b0 hostmem_re
b0 raddr
b111 weights_count
b0 weights_dram_in
b0 weights_dram_valid
b1001 weights_wait
#161
b1 assertion0
b1 assertion1
b0 hostmem_re
b0 raddr
b111 weights_count
b0 weights_dram_in
b0 weights_dram_valid
b1001 weights_wait
#162
b1 assertion0
b1 assertion1
b0 hostmem_re
b0 raddr
b111 weights_count
b0 weights_dram_in
b0 weights_dram_valid
b1001 weights_wait
#163
b1 assertion0
b1 assertion1
b0 hostmem_re
b0 raddr
b111 weights_count
b0 weights_dram_in
b0 weights_dram_valid
b1001 weights_wait
#164
b1 assertion0
b1 assertion1
b0 hostmem_re
b0 raddr
b111 weights_count
b0 weights_dram_in
b0 weights_dram_valid
b1001 weights_wait
#165
b1 assertion0
b1 assertion1
b0 hostmem_re
b0 raddr
b111 weights_count
b0 weights_dram_in
b0 weights_dram_valid
b1001 weights_wait
#166
b1 assertion0
b1 assertion1
b0 hostmem_re
b0 raddr
b111 weights_count
b0 weights_dram_in
b0 weights_dram_valid
b1001 weights_wait
#167
b1 assertion0
b1 assertion1
b0 hostmem_re
b0 raddr
b111 weights_count
b0 weights_dram_in
b0 weights_dram_valid
b1001 weights_wait
#168
b1 assertion0
b1 assertion1
b0 hostmem_re
b0 raddr
b111 weights_count
b0 weights_dram_in
b0 weights_dram_valid
b1001 weights_wait
#169
b1 assertion0
b1 assertion1
b0 hostmem_re
b0 raddr
b111 weights_count
b0 weights_dram_in
b0 weights_dram_valid
b1001 weights_wait
#170
b1 assertion0
b1 assertion1
b0 hostmem_re
b0 raddr
b111 weights_count
b0 weights_dram_in
b0 weights_dram_valid
b1001 weights_wait
#171
b1 assertion0
b1 assertion1
b0 hostmem_re
b0 raddr
b111 weights_count
b0 weights_dram_in
b0 weights_dram_valid
b1001 weights_wait
#172
b1 assertion0
b1 assertion1
b0 hostmem_re
b0 raddr
b111 weights_count
b0 weights_dram_in
b0 weights_dram_valid
b1001 weights_wait
#173
b1 assertion0
b1 assertion1
b0 hostmem_re
b0 raddr
b111 weights_count
b0 weights_dram_in
b0 weights_dram_valid
b1001 weights_wait
#174
b1 assertion0
b1 assertion1
b0 hostmem_re
b0 raddr
b111 weights_count
b0 weights_dram_in
b0 weights_dram_valid
b1001 weights_wait
#175
b1 assertion0
b1 assertion1
b0 hostmem_re
b0 raddr
b111 weights_count
b0 weights_dram_in
b0 weights_dram_valid
b1001 weights_wait
#176
b1 assertion0
b1 assertion1
b0 hostmem_re
b0 raddr
b111 weights_count
b0 weights_dram_in
b0 weights_dram_valid
b1001 weights_wait
#177
b1 assertion0
b1 assertion1
b0 hostmem_re
b0 raddr
b111 weights_count
b0 weights_dram_in
b0 weights_dram_valid
b1001 weights_wait
#178
b1 assertion0
b1 assertion1
b0 hostmem_re
b0 raddr
b111 weights_count
b0 weights_dram_in
b0 weights_dram_valid
b1001 weights_wait
#179
b1 assertion0
b1 assertion1
b0 hostmem_re
b0 raddr
b111 weights_count
b0 weights_dram_in
b0 weights_dram_valid
b1001 weights_wait
#180
b1 assertion0
b1 assertion1
b0 hostmem_re
b0 raddr
b111 weights_count
b0 weights_dram_in
b0 weights_dram_valid
b1001 weights_wait
#181
b1 assertion0
b1 assertion1
b0 hostmem_re
b0 raddr
b111 weights_count
b0 weights_dram_in
b0 weights_dram_valid
b1001 weights_wait
#182
b1 assertion0
b1 assertion1
b0 hostmem_re
b0 raddr
b111 weights_count
b0 weights_dram_in
b0 weights_dram_valid
b1001 weights_wait
#183
b1 assertion0
b1 assertion1
b0 hostmem_re
b0 raddr
b111 weights_count
b0 weights_dram_in
b0 weights_dram_valid
b1001 weights_wait
#184
b1 assertion0
b1 assertion1
b0 hostmem_re
b0 raddr
b111 weights_count
b0 weights_dram_in
b0 weights_dram_valid
b1001 weights_wait
#185
b1 assertion0
b1 assertion1
b0 hostmem_re
b0 raddr
b111 weights_count
b0 weights_dram_in
b0 weights_dram_valid
b1001 weights_wait
#186
b1 assertion0
b1 assertion1
b0 hostmem_re
b0 raddr
b111 weights_count
b0 weights_dram_in
b0 weights_dram_valid
b1001 weights_wait
#187
b1 assertion0
b1 assertion1
b0 hostmem_re
b0 raddr
b111 weights_count
b0 weights_dram_in
b0 weights_dram_valid
b1001 weights_wait
